{
	"info": {
		"_postman_id": "a7935673-b0ef-4486-8c88-bd28414b53d6",
		"name": "kerberos",
		"schema": "https://schema.getpostman.com/json/collection/v2.1.0/collection.json"
	},
	"item": [
		{
			"name": "getUsers",
			"request": {
				"method": "GET",
				"header": [
					{
						"key": "X-Request-Id",
						"value": "243242423",
						"type": "text"
					}
				],
				"body": {
					"mode": "raw",
					"raw": ""
				},
				"url": {
					"raw": "{{protocol}}://{{host}}:{{port}}/kerberos-api/v1/users?pageSize=2",
					"protocol": "{{protocol}}",
					"host": [
						"{{host}}"
					],
					"port": "{{port}}",
					"path": [
						"kerberos-api",
						"v1",
						"users"
					],
					"query": [
						{
							"key": "pageSize",
							"value": "2"
						}
					]
				}
			},
			"response": []
		},
		{
			"name": "createUser",
			"request": {
				"method": "POST",
				"header": [
					{
						"key": "Content-Type",
						"name": "Content-Type",
						"value": "application/json",
						"type": "text"
					},
					{
						"key": "Accept-Language",
						"value": "en",
						"type": "text"
					}
				],
				"body": {
					"mode": "raw",
					"raw": "{\n    \"fullName\": \"Gerardo Roger\",\n    \"userName\": \"groger\",\n    \"password\": \"Qwerty12345@\"\n}"
				},
				"url": {
					"raw": "{{protocol}}://{{host}}:{{port}}/kerberos-api/v1/users",
					"protocol": "{{protocol}}",
					"host": [
						"{{host}}"
					],
					"port": "{{port}}",
					"path": [
						"kerberos-api",
						"v1",
						"users"
					]
				}
			},
			"response": []
		},
		{
			"name": "updateorCreateUser",
			"request": {
				"method": "PUT",
				"header": [
					{
						"key": "Content-Type",
						"name": "Content-Type",
						"value": "application/json",
						"type": "text"
					}
				],
				"body": {
					"mode": "raw",
					"raw": "{\n    \"fullName\": \"Angel Daniel Sanjuán Espejo\",\n    \"userName\": \"dsanjuan\",\n    \"password\": \"Qwerty12345@@\"\n}"
				},
				"url": {
					"raw": "{{protocol}}://{{host}}:{{port}}/kerberos-api/v1/users",
					"protocol": "{{protocol}}",
					"host": [
						"{{host}}"
					],
					"port": "{{port}}",
					"path": [
						"kerberos-api",
						"v1",
						"users"
					]
				}
			},
			"response": []
		},
		{
			"name": "getByUserName",
			"request": {
				"method": "GET",
				"header": [],
				"body": {
					"mode": "raw",
					"raw": ""
				},
				"url": {
					"raw": "{{protocol}}://{{host}}:{{port}}/kerberos-api/v1/users/dsanjuan",
					"protocol": "{{protocol}}",
					"host": [
						"{{host}}"
					],
					"port": "{{port}}",
					"path": [
						"kerberos-api",
						"v1",
						"users",
						"dsanjuan"
					]
				}
			},
			"response": []
		},
		{
			"name": "login",
			"request": {
				"method": "POST",
				"header": [
					{
						"key": "Content-Type",
						"name": "Content-Type",
						"value": "application/json",
						"type": "text"
					}
				],
				"body": {
					"mode": "raw",
					"raw": "{\n\t\"userName\": \"dsanjuan\",\n\t\"password\": \"Qwerty12345@@\"\n}"
				},
				"url": {
					"raw": "{{protocol}}://{{host}}:{{port}}/kerberos-api/v1/tokens",
					"protocol": "{{protocol}}",
					"host": [
						"{{host}}"
					],
					"port": "{{port}}",
					"path": [
						"kerberos-api",
						"v1",
						"tokens"
					]
				}
			},
			"response": []
		},
		{
			"name": "tokenInfo",
			"request": {
				"method": "GET",
				"header": [],
				"body": {
					"mode": "raw",
					"raw": ""
				},
				"url": {
					"raw": "{{protocol}}://{{host}}:{{port}}/kerberos-api/v1/tokens/eyJhbGciOiJIUzUxMiJ9.eyJleHAiOjE1NTcwODczNTUsImlhdCI6MTU1NzA4Njc1NSwianRpIjoiNmI1ZmE2N2ItMDBlYS00Yjg3LWIyMjMtZjAyNTJmZDIwNTU2IiwiZGF0YSI6IntcInVzZXJOYW1lXCI6XCJkc2FuanVhblwifSJ9.A9prq3GBCBIQJWQFBv7bscIV7RQk7P7LsPlYUCDuGImckz6HBh1P_Jj90Jh_wz63GconTHC6uge2YY31z51jNg",
					"protocol": "{{protocol}}",
					"host": [
						"{{host}}"
					],
					"port": "{{port}}",
					"path": [
						"kerberos-api",
						"v1",
						"tokens",
						"eyJhbGciOiJIUzUxMiJ9.eyJleHAiOjE1NTcwODczNTUsImlhdCI6MTU1NzA4Njc1NSwianRpIjoiNmI1ZmE2N2ItMDBlYS00Yjg3LWIyMjMtZjAyNTJmZDIwNTU2IiwiZGF0YSI6IntcInVzZXJOYW1lXCI6XCJkc2FuanVhblwifSJ9.A9prq3GBCBIQJWQFBv7bscIV7RQk7P7LsPlYUCDuGImckz6HBh1P_Jj90Jh_wz63GconTHC6uge2YY31z51jNg"
					]
				}
			},
			"response": []
		},
		{
			"name": "updateUser",
			"request": {
				"method": "PATCH",
				"header": [
					{
						"key": "Content-Type",
						"name": "Content-Type",
						"value": "application/json;charset=UTF-8",
						"type": "text"
					}
				],
				"body": {
					"mode": "raw",
					"raw": "{\n    \"fullName\": \"Angel Daniel Sanjuan Es\"\n\n}"
				},
				"url": {
					"raw": "{{protocol}}://{{host}}:{{port}}/kerberos-api/v1/users/dsanjuan",
					"protocol": "{{protocol}}",
					"host": [
						"{{host}}"
					],
					"port": "{{port}}",
					"path": [
						"kerberos-api",
						"v1",
						"users",
						"dsanjuan"
					]
				}
			},
			"response": []
		}
	]
}